%!PS-Adobe-3.0 EPSF-3.0
%%Creator: cairo 1.14.6 (http://cairographics.org)
%%CreationDate: Tue Aug 21 10:54:30 2018
%%Pages: 1
%%DocumentData: Clean7Bit
%%LanguageLevel: 2
%%BoundingBox: 0 37 512 475
%%EndComments
%%BeginProlog
save
50 dict begin
/q { gsave } bind def
/Q { grestore } bind def
/cm { 6 array astore concat } bind def
/w { setlinewidth } bind def
/J { setlinecap } bind def
/j { setlinejoin } bind def
/M { setmiterlimit } bind def
/d { setdash } bind def
/m { moveto } bind def
/l { lineto } bind def
/c { curveto } bind def
/h { closepath } bind def
/re { exch dup neg 3 1 roll 5 3 roll moveto 0 rlineto
      0 exch rlineto 0 rlineto closepath } bind def
/S { stroke } bind def
/f { fill } bind def
/f* { eofill } bind def
/n { newpath } bind def
/W { clip } bind def
/W* { eoclip } bind def
/BT { } bind def
/ET { } bind def
/pdfmark where { pop globaldict /?pdfmark /exec load put }
    { globaldict begin /?pdfmark /pop load def /pdfmark
    /cleartomark load def end } ifelse
/BDC { mark 3 1 roll /BDC pdfmark } bind def
/EMC { mark /EMC pdfmark } bind def
/cairo_store_point { /cairo_point_y exch def /cairo_point_x exch def } def
/Tj { show currentpoint cairo_store_point } bind def
/TJ {
  {
    dup
    type /stringtype eq
    { show } { -0.001 mul 0 cairo_font_matrix dtransform rmoveto } ifelse
  } forall
  currentpoint cairo_store_point
} bind def
/cairo_selectfont { cairo_font_matrix aload pop pop pop 0 0 6 array astore
    cairo_font exch selectfont cairo_point_x cairo_point_y moveto } bind def
/Tf { pop /cairo_font exch def /cairo_font_matrix where
      { pop cairo_selectfont } if } bind def
/Td { matrix translate cairo_font_matrix matrix concatmatrix dup
      /cairo_font_matrix exch def dup 4 get exch 5 get cairo_store_point
      /cairo_font where { pop cairo_selectfont } if } bind def
/Tm { 2 copy 8 2 roll 6 array astore /cairo_font_matrix exch def
      cairo_store_point /cairo_font where { pop cairo_selectfont } if } bind def
/g { setgray } bind def
/rg { setrgbcolor } bind def
/d1 { setcachedevice } bind def
%%EndProlog
%%BeginSetup
%%EndSetup
%%Page: 1 1
%%BeginPageSetup
%%PageBoundingBox: 0 37 512 475
%%EndPageSetup
q 0 37 512 438 rectclip q
0 g
42.547 334.988 m 473.656 334.988 l 473.656 367.191 l 473.656 388.191 456.98
 404.992 435.852 404.992 c 276.621 404.992 l 256.129 404.992 236.91 416.195
 226.469 433.758 c 213.234 456.289 l 206.359 467.746 193.887 475 180.52 
475 c 76.277 475 l 65.711 475 55.91 470.543 48.656 462.906 c 41.398 455.27
 37.582 445.09 38.09 434.523 c h
42.547 334.988 m f
496.691 314.621 m 15.309 314.621 l 10.852 314.621 6.777 312.84 3.723 309.402
 c 0.797 305.969 -0.477 301.766 0.16 297.312 c 31.855 70.238 l 34.527 51.527
 50.691 37.145 69.656 37.145 c 442.98 37.145 l 461.945 37.145 478.238 51.527
 480.781 70.367 c 511.84 297.438 l 512.477 301.895 511.203 306.094 508.277
 309.531 c 505.223 312.84 501.148 314.621 496.691 314.621 c h
337.973 163.281 m 263.383 83.219 l 261.473 81.184 258.801 80.039 255.875
 80.039 c 252.945 80.039 250.398 81.184 248.363 83.219 c 173.777 163.281
 l 169.957 167.355 170.211 173.848 174.285 177.664 c 178.359 181.484 184.848
 181.23 188.668 177.156 c 245.562 116.059 l 245.562 261.543 l 245.562 267.145
 250.145 271.727 255.746 271.727 c 261.348 271.727 265.93 267.145 265.93
 261.543 c 265.93 116.059 l 322.824 177.156 l 326.645 181.23 333.137 181.484
 337.207 177.664 c 341.535 173.848 341.789 167.48 337.973 163.281 c h
337.973 163.281 m f
Q Q
showpage
%%Trailer
end restore
%%EOF
